module example.com/otel

go 1.22.5

require (
	go.opentelemetry.io/contrib/instrumentation/net/http/otelhttp v0.48.0
	go.opentelemetry.io/otel v1.23.1
	go.opentelemetry.io/otel/exporters/otlp/otlptrace v1.23.1
	go.opentelemetry.io/otel/exporters/otlp/otlptrace/otlptracegrpc v1.23.1
	go.opentelemetry.io/otel/sdk v1.23.1
	go.opentelemetry.io/otel/trace v1.23.1
)

require (
	github.com/cenkalti/backoff/v4 v4.2.1 // indirect
	github.com/felixge/httpsnoop v1.0.4 // indirect
	github.com/go-logr/logr v1.4.1 // indirect
	github.com/go-logr/stdr v1.2.2 // indirect
	github.com/golang/protobuf v1.5.3 // indirect
	github.com/grpc-ecosystem/grpc-gateway/v2 v2.19.0 // indirect
	go.opentelemetry.io/otel/metric v1.23.1 // indirect
	go.opentelemetry.io/proto/otlp v1.1.0 // indirect
	golang.org/x/net v0.19.0 // indirect
	golang.org/x/sys v0.16.0 // indirect
	golang.org/x/text v0.14.0 // indirect
	google.golang.org/genproto/googleapis/api v0.0.0-20240102182953-50ed04b92917 // indirect
	google.golang.org/genproto/googleapis/rpc v0.0.0-20240102182953-50ed04b92917 // indirect
	google.golang.org/grpc v1.61.0 // indirect
	google.golang.org/protobuf v1.32.0 // indirect
)
